{
    "page": 2,
    "limit": 2,
    "total": 3,
    "pages": 2,
    "items": [
        {
            "code": "LOGAN_T_SHIRT_CODE",
            "name": "Logan T-Shirt",
            "slug": "@string@",
            "taxons": "@array@",
            "variants": "@array@",
            "attributes": "@array@",
            "images": "@array@",
            "channelCode": "WEB_GB",
            "localeCode": "en_GB"
        }
    ],
    "filters": {
        "channel": "@array@",
        "enabled": "@array@",
        "taxon": "@array@",
        "priceRange": "@array@",
        "locale": "@array@",
        "paginator": {
            "state": {
                "active": true,
                "value": 2,
                "urlParameters": [],
                "name": "paginator",
                "options": {
                    "limit": 2
                }
            },
            "tags": [],
            "urlParameters": {
                "channel": "WEB_GB",
                "enabled": true,
                "locale": "en_GB"
            },
            "resetUrlParameters": {
                "channel": "WEB_GB",
                "enabled": true,
                "locale": "en_GB"
            },
            "name": "paginator",
            "currentPage": 2,
            "totalItems": 3,
            "maxPages": 20,
            "itemsPerPage": 2,
            "numPages": 2,
            "options": [],
            "limit": 2
        },
        "search": "@array@",
        "attributes": "@array@",
        "sort": "@array@"
    }
}
