{
    "page": 1,
    "limit": 1,
    "total": 6,
    "pages": 6,
    "items": [
        {
            "code": "LOGAN_MUG_CODE",
            "name": "Logan Mug",
            "slug": "logan-mug",
            "taxons": {
                "main": "MUG",
                "others": [
                    "MUG",
                    "CATEGORY",
                    "BRAND"
                ]
            },
            "variants": [
                {
                    "code": "LOGAN_MUG_CODE",
                    "name": "Logan Mug",
                    "price": {
                        "current": 1999,
                        "currency": "GBP"
                    },
                    "images": [
                    ]
                }
            ],
            "attributes": [
                {
                    "code": "MUG_COLLECTION_CODE",
                    "name": "Mug collection",
                    "value": "HOLIDAY COLLECTION"
                },
                {
                    "code": "MUG_MATERIAL_CODE",
                    "name": "Mug material",
                    "value": "Wood"
                }
            ],
            "images": [
            ],
            "channelCode": "WEB_GB",
            "localeCode": "en_GB"
        }
    ],
    "filters": {
        "channel": {
            "state": {
                "active": false,
                "urlParameters": [
                ],
                "name": "channel",
                "options": [
                ]
            },
            "tags": [
            ],
            "urlParameters": [
            ],
            "resetUrlParameters": [
            ],
            "name": "channel",
            "choices": [
                {
                    "active": false,
                    "default": false,
                    "urlParameters": {
                        "channel": "WEB_GB"
                    },
                    "label": "WEB_GB",
                    "count": 6
                }
            ]
        },
        "taxonCode": {
            "state": {
                "active": false,
                "urlParameters": [
                ],
                "name": "taxonCode",
                "options": [
                ]
            },
            "tags": [
            ],
            "urlParameters": [
            ],
            "resetUrlParameters": [
            ],
            "name": "taxonCode",
            "choices": [
                {
                    "active": false,
                    "default": false,
                    "urlParameters": {
                        "taxonCode": "HAT"
                    },
                    "label": "HAT",
                    "count": 2
                },
                {
                    "active": false,
                    "default": false,
                    "urlParameters": {
                        "taxonCode": "MUG"
                    },
                    "label": "MUG",
                    "count": 2
                },
                {
                    "active": false,
                    "default": false,
                    "urlParameters": {
                        "taxonCode": "T_SHIRTS"
                    },
                    "label": "T_SHIRTS",
                    "count": 2
                },
                {
                    "active": false,
                    "default": false,
                    "urlParameters": {
                        "taxonCode": "BRAND"
                    },
                    "label": "BRAND",
                    "count": 6
                },
                {
                    "active": false,
                    "default": false,
                    "urlParameters": {
                        "taxonCode": "CATEGORY"
                    },
                    "label": "CATEGORY",
                    "count": 6
                }
            ]
        },
        "priceRange": {
            "state": {
                "active": false,
                "urlParameters": [
                ],
                "name": "priceRange",
                "options": [
                ]
            },
            "tags": [
            ],
            "urlParameters": [
            ],
            "resetUrlParameters": [
            ],
            "name": "priceRange",
            "minBounds": 1999,
            "maxBounds": 2999
        },
        "locale": {
            "state": {
                "active": false,
                "urlParameters": [
                ],
                "name": "locale",
                "options": [
                ]
            },
            "tags": [
            ],
            "urlParameters": [
            ],
            "resetUrlParameters": [
            ],
            "name": "locale",
            "choices": [
                {
                    "active": false,
                    "default": false,
                    "urlParameters": {
                        "locale": "de_DE"
                    },
                    "label": "de_DE",
                    "count": 3
                },
                {
                    "active": false,
                    "default": false,
                    "urlParameters": {
                        "locale": "en_GB"
                    },
                    "label": "en_GB",
                    "count": 3
                }
            ]
        },
        "paginator": {
            "state": {
                "active": false,
                "value": 1,
                "urlParameters": [
                ],
                "name": "paginator",
                "options": {
                    "limit": 1
                }
            },
            "tags": [
            ],
            "urlParameters": [
            ],
            "resetUrlParameters": [
            ],
            "name": "paginator",
            "currentPage": 1,
            "totalItems": 6,
            "maxPages": 20,
            "itemsPerPage": 1,
            "numPages": 6,
            "options": [
            ],
            "limit": 1
        },
        "search": {
            "state": {
                "active": false,
                "urlParameters": [
                ],
                "name": "search",
                "options": [
                ]
            },
            "tags": [
            ],
            "urlParameters": [
            ],
            "resetUrlParameters": [
            ],
            "name": "search"
        },
        "attributes": {
            "state": {
                "active": false,
                "urlParameters": [
                ],
                "name": "attributes",
                "options": [
                ]
            },
            "tags": [
            ],
            "urlParameters": [
            ],
            "resetUrlParameters": [
            ],
            "name": "attributes",
            "items": [
                {
                    "tags": [
                    ],
                    "urlParameters": [
                    ],
                    "resetUrlParameters": [
                    ],
                    "name": "Mug collection",
                    "choices": {
                        "FEIERTAGSKOLLEKTION": {
                            "active": false,
                            "default": false,
                            "urlParameters": {
                                "attributes": {
                                    "Mug collection": [
                                        "FEIERTAGSKOLLEKTION"
                                    ]
                                }
                            },
                            "label": "FEIERTAGSKOLLEKTION",
                            "count": 2
                        },
                        "HOLIDAY COLLECTION": {
                            "active": false,
                            "default": false,
                            "urlParameters": {
                                "attributes": {
                                    "Mug collection": [
                                        "HOLIDAY COLLECTION"
                                    ]
                                }
                            },
                            "label": "HOLIDAY COLLECTION",
                            "count": 2
                        }
                    }
                },
                {
                    "tags": [
                    ],
                    "urlParameters": [
                    ],
                    "resetUrlParameters": [
                    ],
                    "name": "Mug material",
                    "choices": {
                        "Holz": {
                            "active": false,
                            "default": false,
                            "urlParameters": {
                                "attributes": {
                                    "Mug material": [
                                        "Holz"
                                    ]
                                }
                            },
                            "label": "Holz",
                            "count": 1
                        },
                        "Wood": {
                            "active": false,
                            "default": false,
                            "urlParameters": {
                                "attributes": {
                                    "Mug material": [
                                        "Wood"
                                    ]
                                }
                            },
                            "label": "Wood",
                            "count": 1
                        }
                    }
                }
            ]
        }
    }
}
