{
    "page": 2,
    "limit": 3,
    "total": 6,
    "pages": 2,
    "items": [
        {
            "code": "LOGAN_HAT_CODE",
            "name": "Logan Hut",
            "slug": "logan-hut",
            "taxons": {
                "others": [
                    "HAT",
                    "CATEGORY",
                    "BRAND"
                ]
            },
            "variants": [
                {
                    "code": "LOGAN_HAT_CODE",
                    "name": "Logan Hut",
                    "price": {
                        "current": 2999,
                        "currency": "GBP"
                    },
                    "images": []
                }
            ],
            "attributes": [
                {
                    "code": "MUG_COLLECTION_CODE",
                    "name": "Becher Sammlung",
                    "value": "FEIERTAGSKOLLEKTION"
                }
            ],
            "images": [],
            "channelCode": "WEB_GB",
            "localeCode": "de_DE"
        },
        {
            "code": "LOGAN_T_SHIRT_CODE",
            "name": "Logan T-Shirt",
            "slug": "logan-t-shirt",
            "taxons": {
                "main": "T_SHIRTS",
                "others": [
                    "T_SHIRTS",
                    "CATEGORY",
                    "BRAND"
                ]
            },
            "variants": [
                {
                    "code": "LOGAN_T_SHIRT_CODE",
                    "name": "Logan T-Shirt",
                    "price": {
                        "current": 1999,
                        "currency": "GBP"
                    },
                    "images": []
                }
            ],
            "attributes": [],
            "images": [],
            "channelCode": "WEB_GB",
            "localeCode": "en_GB"
        },
        {
            "code": "LOGAN_T_SHIRT_CODE",
            "taxons": {
                "main": "T_SHIRTS",
                "others": [
                    "T_SHIRTS",
                    "CATEGORY",
                    "BRAND"
                ]
            },
            "variants": [
                {
                    "code": "LOGAN_T_SHIRT_CODE",
                    "price": {
                        "current": 1999,
                        "currency": "GBP"
                    },
                    "images": []
                }
            ],
            "attributes": [],
            "images": [],
            "channelCode": "WEB_GB",
            "localeCode": "de_DE"
        }
    ],
    "filters": {
        "channel": {
            "state": {
                "active": false,
                "urlParameters": [],
                "name": "channel",
                "options": []
            },
            "tags": [],
            "urlParameters": {
                "enabled": true
            },
            "resetUrlParameters": {
                "enabled": true
            },
            "name": "channel",
            "choices": [
                {
                    "active": false,
                    "default": false,
                    "urlParameters": {
                        "enabled": true,
                        "channel": "WEB_GB"
                    },
                    "label": "WEB_GB",
                    "count": 6
                }
            ]
        },
        "enabled": {
            "state": {
                "active": true,
                "value": true,
                "urlParameters": {
                    "enabled": true
                },
                "name": "enabled",
                "options": []
            },
            "tags": [],
            "urlParameters": {
                "enabled": true
            },
            "resetUrlParameters": [],
            "name": "enabled",
            "choices": [
                {
                    "active": false,
                    "default": false,
                    "urlParameters": {
                        "enabled": 0
                    },
                    "label": 0,
                    "count": 2
                },
                {
                    "active": true,
                    "default": false,
                    "urlParameters": [],
                    "label": 1,
                    "count": 6
                }
            ]
        },
        "taxonCode": {
            "state": {
                "active": false,
                "urlParameters": [],
                "name": "taxonCode",
                "options": []
            },
            "tags": [],
            "urlParameters": {
                "enabled": true
            },
            "resetUrlParameters": {
                "enabled": true
            },
            "name": "taxonCode",
            "choices": [
                {
                    "active": false,
                    "default": false,
                    "urlParameters": {
                        "enabled": true,
                        "taxonCode": "HAT"
                    },
                    "label": "HAT",
                    "count": 2
                },
                {
                    "active": false,
                    "default": false,
                    "urlParameters": {
                        "enabled": true,
                        "taxonCode": "MUG"
                    },
                    "label": "MUG",
                    "count": 2
                },
                {
                    "active": false,
                    "default": false,
                    "urlParameters": {
                        "enabled": true,
                        "taxonCode": "T_SHIRTS"
                    },
                    "label": "T_SHIRTS",
                    "count": 2
                },
                {
                    "active": false,
                    "default": false,
                    "urlParameters": {
                        "enabled": true,
                        "taxonCode": "BRAND"
                    },
                    "label": "BRAND",
                    "count": 6
                },
                {
                    "active": false,
                    "default": false,
                    "urlParameters": {
                        "enabled": true,
                        "taxonCode": "CATEGORY"
                    },
                    "label": "CATEGORY",
                    "count": 6
                }
            ]
        },
        "priceRange": {
            "state": {
                "active": false,
                "urlParameters": [],
                "name": "priceRange",
                "options": []
            },
            "tags": [],
            "urlParameters": {
                "enabled": true
            },
            "resetUrlParameters": {
                "enabled": true
            },
            "name": "priceRange",
            "minBounds": 1999,
            "maxBounds": 2999
        },
        "locale": {
            "state": {
                "active": false,
                "urlParameters": [],
                "name": "locale",
                "options": []
            },
            "tags": [],
            "urlParameters": {
                "enabled": true
            },
            "resetUrlParameters": {
                "enabled": true
            },
            "name": "locale",
            "choices": [
                {
                    "active": false,
                    "default": false,
                    "urlParameters": {
                        "enabled": true,
                        "locale": "de_DE"
                    },
                    "label": "de_DE",
                    "count": 3
                },
                {
                    "active": false,
                    "default": false,
                    "urlParameters": {
                        "enabled": true,
                        "locale": "en_GB"
                    },
                    "label": "en_GB",
                    "count": 3
                }
            ]
        },
        "paginator": {
            "state": {
                "active": true,
                "value": 2,
                "urlParameters": [],
                "name": "paginator",
                "options": {
                    "limit": 3
                }
            },
            "tags": [],
            "urlParameters": {
                "enabled": true
            },
            "resetUrlParameters": {
                "enabled": true
            },
            "name": "paginator",
            "currentPage": 2,
            "totalItems": 6,
            "maxPages": 20,
            "itemsPerPage": 3,
            "numPages": 2,
            "options": [],
            "limit": 3
        },
        "search": {
            "state": {
                "active": false,
                "urlParameters": [],
                "name": "search",
                "options": []
            },
            "tags": [],
            "urlParameters": {
                "enabled": true
            },
            "resetUrlParameters": {
                "enabled": true
            },
            "name": "search"
        },
        "attributes": {
            "state": {
                "active": false,
                "urlParameters": [],
                "name": "attributes",
                "options": []
            },
            "tags": [],
            "urlParameters": {
                "enabled": true
            },
            "resetUrlParameters": {
                "enabled": true
            },
            "name": "attributes",
            "items": [
                {
                    "tags": [],
                    "urlParameters": [],
                    "resetUrlParameters": {
                        "enabled": true
                    },
                    "name": "Becher Material",
                    "choices": {
                        "Holz": {
                            "active": false,
                            "default": false,
                            "urlParameters": {
                                "enabled": true,
                                "attributes": {
                                    "Becher Material": [
                                        "Holz"
                                    ]
                                }
                            },
                            "label": "Holz",
                            "count": 1
                        }
                    }
                },
                {
                    "tags": [],
                    "urlParameters": [],
                    "resetUrlParameters": {
                        "enabled": true
                    },
                    "name": "Becher Sammlung",
                    "choices": {
                        "FEIERTAGSKOLLEKTION": {
                            "active": false,
                            "default": false,
                            "urlParameters": {
                                "enabled": true,
                                "attributes": {
                                    "Becher Sammlung": [
                                        "FEIERTAGSKOLLEKTION"
                                    ]
                                }
                            },
                            "label": "FEIERTAGSKOLLEKTION",
                            "count": 2
                        }
                    }
                },
                {
                    "tags": [],
                    "urlParameters": [],
                    "resetUrlParameters": {
                        "enabled": true
                    },
                    "name": "Mug collection",
                    "choices": {
                        "HOLIDAY COLLECTION": {
                            "active": false,
                            "default": false,
                            "urlParameters": {
                                "enabled": true,
                                "attributes": {
                                    "Mug collection": [
                                        "HOLIDAY COLLECTION"
                                    ]
                                }
                            },
                            "label": "HOLIDAY COLLECTION",
                            "count": 2
                        }
                    }
                },
                {
                    "tags": [],
                    "urlParameters": [],
                    "resetUrlParameters": {
                        "enabled": true
                    },
                    "name": "Mug material",
                    "choices": {
                        "Wood": {
                            "active": false,
                            "default": false,
                            "urlParameters": {
                                "enabled": true,
                                "attributes": {
                                    "Mug material": [
                                        "Wood"
                                    ]
                                }
                            },
                            "label": "Wood",
                            "count": 1
                        }
                    }
                }
            ]
        }
    }
}
